Sunday 23rd of February 2020 10:07:55 PM  ||  <p class='text-info'>Изменение бронирования:</p>     <span class='text-warning px-2'>ID бронирования:</span>  1748, <span class='text-warning px-2'>старт:</span> 2020-02-23T09:00:00.000, <span class='text-warning px-2'>окончание:</span> 2020-02-23T11:30:00.000, <span class='text-warning px-2'>переговорная:</span> 14, <span class='text-warning px-2'>организатор:</span> 0000004666 
Sunday 23rd of February 2020 10:07:55 PM  ||  <p class='text-info'>Добавлен участник:</p><span class='text-warning px-2'>ID бронирования:</span> 1748,<span class='text-warning px-2'>ID участника:</span> 0000005868 
Sunday 23rd of February 2020 10:07:55 PM  ||  <p class='text-info'>Добавлен участник:</p><span class='text-warning px-2'>ID бронирования:</span> 1748,<span class='text-warning px-2'>ID участника:</span> 0024083955 
Sunday 23rd of February 2020 10:07:56 PM  ||  <p class='text-info'>Добавлен участник:</p><span class='text-warning px-2'>ID бронирования:</span> 1748,<span class='text-warning px-2'>ID участника:</span> 0000002047 
Sunday 23rd of February 2020 10:08:21 PM  ||  <p class='text-info'>Создание бронирования:</p>     <span class='text-warning px-2'>ID бронирования:</span>  Пока не присвоено, <span class='text-warning px-2'>старт:</span> 2020-02-23T08:00:00.000, <span class='text-warning px-2'>окончание:</span> 2020-02-23T11:30:00.000, <span class='text-warning px-2'>переговорная:</span> 2, <span class='text-warning px-2'>организатор:</span> 0000004666 
Sunday 23rd of February 2020 10:08:51 PM  ||  <p class='text-info'>Удаление бронирования:</p>     <span class='text-warning px-2'>ID бронирования:</span>  1748 
Sunday 23rd of February 2020 10:08:52 PM  ||  <p class='text-info'>Удаление бронирования:</p>     <span class='text-warning px-2'>ID бронирования:</span>  1749 
Sunday 23rd of February 2020 10:08:53 PM  ||  <p class='text-info'>Удаление бронирования:</p>     <span class='text-warning px-2'>ID бронирования:</span>  1747 
Monday 24th of February 2020 01:05:23 PM  ||  <p class='text-info'>Создание бронирования:</p>     <span class='text-warning px-2'>ID бронирования:</span>  Пока не присвоено, <span class='text-warning px-2'>старт:</span> 2020-02-25T15:00:00.000, <span class='text-warning px-2'>окончание:</span> 2020-02-25T16:00:00.000, <span class='text-warning px-2'>переговорная:</span> 6, <span class='text-warning px-2'>организатор:</span> 0000693266 
Monday 24th of February 2020 06:17:05 PM  ||  <p class='text-info'>Создание бронирования:</p>     <span class='text-warning px-2'>ID бронирования:</span>  Пока не присвоено, <span class='text-warning px-2'>старт:</span> 2020-02-25T17:00:00.000, <span class='text-warning px-2'>окончание:</span> 2020-02-25T18:00:00.000, <span class='text-warning px-2'>переговорная:</span> 7, <span class='text-warning px-2'>организатор:</span> 0000000186 
